<svg xmlns="http://www.w3.org/2000/svg" width="100" height="2" viewBox="0 0 100 2">
  <line id="Line_1" data-name="Line 1" x2="100" transform="translate(0 1)" fill="none" stroke="#000" stroke-width="2"/>
</svg>
